…
## See spec(...) for full column specifications.

db

## # A tibble: 120 x 24
##    hospital hospid docid dis_date sex     age   test1 test2  pain tumorsize
##    <chr>     <dbl> <chr> <chr>    <chr> <dbl>   <dbl> <dbl> <dbl>     <dbl>
##  1 UCLA          1 1-1   6-Sep-09 male   65.0   3.70  8.09      4      68.0
##  2 UCLA          1 1-1   7-Jan-11 fema…  53.9   2.63  0.803     2      64.7
##  3 UCLA          1 1-1   4-Sep-10 male   41.4 -99     2.13      3      86.4
##  4 UCLA          1 1-1   25-Jun-… male   46.8   3.89  1.35      3      53.4
##  5 UCLA          1 1-1   1-Jul-09 male   51.9   1.42  2.19      4      51.7
##  6 UCLA          1 1-1   6-Mar-09 fema…  53.8   2.29  8.61      3      78.9
##  7 UCLA          1 1-1   15-Apr-… male   54.4   8.03  7.23      4      62.9
##  8 UCLA          1 1-11  12-Jul-… fema…  47.1   0.810 2.60      5      81.2
##  9 UCLA          1 1-11  25-Jul-… fema…  59.3 -99     5.18      4      73.2
## 10 UCLA          1 1-11  12-Jul-… fema…  47.1   0.810 2.60      5      81.2
## # … with 110 more rows, and 14 more variables: co2 <dbl>, wound <dbl>,
## #   mobility <dbl>, ntumors <dbl>, remission <dbl>, lungcapacity <dbl>,
## #   married <dbl>, familyhx <chr>, smokinghx <chr>, cancerstage <chr>,
## #   lengthofstay <dbl>, wbc <chr>, rbc <dbl>, bmi <dbl>
…
Un ejemplo de uso para el comando filter() es elegir todas las personas de género femenino con un grado de dolor mayor o igual a 9:

dfhp <- filter(db, sex=="female", pain>=9)

¿Cómo encontrarías este subgrupo de pacientes sin utilizar filter()?

select()

El comando select() se utiliza para mantener solo las variables que nos interesan. Por ejemplo, si deseamos mantener solo las variables hospid, docid, age y cancerstage:

db_small <- select(db, hospid, docid, age, cancerstage)
db_small

## # A tibble: 120 x 4
##    hospid docid   age cancerstage
##     <dbl> <chr> <dbl> <chr>      
##  1      1 1-1    65.0 II         
##  2      1 1-1    53.9 II         
##  3      1 1-1    41.4 I          
##  4      1 1-1    46.8 II         
##  5      1 1-1    51.9 I          
##  6      1 1-1    53.8 II         
##  7      1 1-1    54.4 II         
##  8      1 1-11   47.1 I          
##  9      1 1-11   59.3 IV         
## 10      1 1-11   47.1 I          
## # … with 110 more rows
…
## [1] "hospital" "hospid"

# Obtener las variables test1 y tes2
dbhosp <- select(db, num_range("test", 1:2))
names(dbhosp)

## [1] "test1" "test2"

arrange()

El comando arrange() nos permite ordenar las filas de una base de datos de acuerdo a los criterios especificados por el usuario. El comando arrange() ordena automáticamente en orden ascendente, pero se puede ordenar el orden descendente si utilizamos el argumento desc. Por ejemplo, podemos ordenar nuestra base de datos primero hombres, luego mujeres y luego por edades, primero lo más jóvenes:

arrange(db, desc(sex), age)

## # A tibble: 120 x 24
##    hospital hospid docid dis_date sex     age test1  test2  pain tumorsize   co2
##    <chr>     <dbl> <chr> <chr>    <chr> <dbl> <dbl>  <dbl> <dbl>     <dbl> <dbl>
##  1 UCSF          2 2-178 19-Apr-… male   34.2  4.63  3.26      3      65.5  1.64
##  2 UCLA          1 1-58  9-Feb-10 male   35.3  2.14 12.4       6      60.5  1.56
##  3 UCSF          2 2-121 20-Apr-… male   40.1 NA    NA         5      73.5  1.65
##  4 UCLA          1 1-1   4-Sep-10 male   41.4 NA     2.13      3      86.4  1.45
##  5 UCSF          2 2-121 22-Aug-… male   41.5  2.88  6.80      5      60.2  1.50
##  6 UCSF          2 2-163 19-Apr-… male   42.5  1.63  0.749     4      54.0  1.72
##  7 UCLA          1 1-11  19-Aug-… male   43.7 10.5   5.89      7      61.3  1.49
##  8 UCLA          1 1-1   25-Jun-… male   46.8  3.89  1.35      3      53.4  1.57
##  9 UCLA          1 1-21  22-Apr-… male   48.0  3.39 NA         8      79.6  1.55
## 10 UCSF          2 2-178 12-Mar-… male   48.9  4.15  3.04      7      71.8  1.47
## # … with 110 more rows, and 13 more variables: wound <dbl>, mobility <dbl>,
## #   ntumors <dbl>, remission <dbl>, lungcapacity <dbl>, married <dbl>,
## #   familyhx <chr>, smokinghx <chr>, cancerstage <chr>, lengthofstay <dbl>,
## #   wbc <chr>, rbc <dbl>, bmi <dbl>
…
## See spec(...) for full column specifications.

db2

## # A tibble: 111 x 24
##    hospital hospid docid dis_date sex     age test1  test2  pain tumorsize
##    <chr>     <dbl> <chr> <chr>    <chr> <dbl> <dbl>  <dbl> <dbl>     <dbl>
##  1 Cedars-…      3 3-227 1-Oct-09 male   54.2 3.87    1.37     6      69.8
##  2 Cedars-…      3 3-227 18-Feb-… fema…  55.1 7.76    4.50     8      68.0
##  3 Cedars-…      3 3-227 30-Jun-… fema…  58.1 5.73  -99        7      65.1
##  4 Cedars-…      3 3-227 15-Nov-… fema…  51.5 8.58    4.61     9      71.4
##  5 Cedars-…      3 3-227 17-Feb-… fema…  54.6 6.70    2.64     4      69.5
##  6 Cedars-…      3 3-227 22-Dec-… male   49.1 2.87    5.46     5      89.7
##  7 Cedars-…      3 3-227 15-Apr-… fema…  59.8 9.60    3.37     6      73.1
##  8 Cedars-…      3 3-241 17-Apr-… fema…  49.7 0.175   8.69     3      80.6
##  9 Cedars-…      3 3-241 12-Oct-… male   65.6 6.08    6.79     5      55.1
## 10 Cedars-…      3 3-241 30-Oct-… male   57.4 6.21   14.0      8      61.3
## # … with 101 more rows, and 14 more variables: co2 <dbl>, wound <dbl>,
## #   mobility <dbl>, ntumors <dbl>, remission <dbl>, lungcapacity <dbl>,
## #   married <dbl>, familyhx <chr>, smokinghx <chr>, cancerstage <chr>,
## #   lengthofstay <dbl>, wbc <chr>, rbc <dbl>, bmi <dbl>

El objetivo es unir las bases de datos. Para esto podemos utilizar el comando preinstalado rbind(), o bien el comando bind_rowns() que es parte del paquete tidyverse. Existen algunas diferencias entre ambos métodos. Por ejemplo, si en una de las bases de datos que vamos a unir existen columnas que en la otra no rbind() resultará en un error, mientras que bind_rows() creará las nuevas columnas y rellenará los datos faltantes con NA. Otra diferencia es que si la misma columna en ambas bases de datos contiene datos de diferentes tipos (por ejemplo, en una base de datos son caracteres y en la otra son datos numéricos), rbind() convertirá los datos de la base de datos unificada en datos del mismo tipo siguiendo el orden: datos lógicos, datos numéricos enteros, datos numéricos con decimales, y, finalmente, caracteres; en cambio bind_rows() resultará en un error. Aquí utilizamos el comando bind_rows(), pero explora cómo hacer la unión de las bases usando rbind().

db_union <- bind_rows(db, db2, .id="source")
db_union

## # A tibble: 231 x 27
##    source hospital hospid docid dis_date sex     age  test1 test2  pain
##    <chr>  <chr>     <dbl> <chr> <chr>    <chr> <dbl>  <dbl> <dbl> <dbl>
##  1 1      UCLA          1 1-1   6-Sep-09 male   65.0  3.70  8.09      4
##  2 1      UCLA          1 1-1   7-Jan-11 fema…  53.9  2.63  0.803     2
##  3 1      UCLA          1 1-1   4-Sep-10 male   41.4 NA     2.13      3
##  4 1      UCLA          1 1-1   25-Jun-… male   46.8  3.89  1.35      3
##  5 1      UCLA          1 1-1   1-Jul-09 male   51.9  1.42  2.19      4
##  6 1      UCLA          1 1-1   6-Mar-09 fema…  53.8  2.29  8.61      3
##  7 1      UCLA          1 1-1   15-Apr-… male   54.4  8.03  7.23      4
##  8 1      UCLA          1 1-11  12-Jul-… fema…  47.1  0.810 2.60      5
##  9 1      UCLA          1 1-11  25-Jul-… fema…  59.3 NA     5.18      4
## 10 1      UCLA          1 1-11  12-Jul-… fema…  47.1  0.810 2.60      5
## # … with 221 more rows, and 17 more variables: tumorsize <dbl>, co2 <dbl>,
## #   wound <dbl>, mobility <dbl>, ntumors <dbl>, remission <dbl>,
## #   lungcapacity <dbl>, married <dbl>, familyhx <chr>, smokinghx <chr>,
## #   cancerstage <chr>, lengthofstay <dbl>, wbc <chr>, rbc <dbl>, bmi <dbl>,
## #   agecat <fct>, highpain <lgl>
…
db3 <- read_csv("https://raw.githubusercontent.com/amosino/courses--econometria/master/econometria_salud/econometria_salud--datos/CancerData_D1.csv")

## Parsed with column specification:
## cols(
##   docid = col_character(),
##   experience = col_double(),
##   school = col_character(),
##   lawsuits = col_double(),
##   medicaid = col_double()
## )

db3

## # A tibble: 40 x 5
##    docid experience school  lawsuits medicaid
##    <chr>      <dbl> <chr>      <dbl>    <dbl>
##  1 1-1           25 average        3    0.606
##  2 1-11          10 top            0    0.605
##  3 1-21          21 average        3    0.483
##  4 1-22          22 top            3    0.483
##  5 1-33          16 top            0    0.584
##  6 1-48          23 average        3    0.219
##  7 1-57          21 average        1    0.405
##  8 1-58          21 average        1    0.405
##  9 1-72          24 average        4    0.522
## 10 1-73          14 average        1    0.522
## # … with 30 more rows
…
inner_join(x,y): regresa todas las filas de la base de datos x que coinciden con las filas de la base de datos y.

left_join(x,y): regresa todas las filas de la base de datos x. Las filas de x que no coincidan con las filas de la base de datos y se remplazan con NA. Las filas de la base de datos y que no coincidan con las de la base x no se consideran.

full_join(x,y): regresa todas las filas de la base de datos x y todas las filas de la base de datos y. Las filas de x que no coincidan con las filas de la base de datos y y las filas de y que no coincidan con la base de datos x se remplazan con NA.

Tómate el tiempo para explorar las tres posibilidades. Aquí utilizamos full_join() para mostrar el uso de este comando. Nota que R elige la variable docid para combinar las bases de datos de manera automática. Sin embargo, también es posible utilizar el argumento by para elegir la variable para combinar las bases de forma “manual”.

db_full <- full_join(db_union, db3)

## Joining, by = "docid"

db_full

## # A tibble: 233 x 31
##    source hospital hospid docid dis_date sex     age  test1 test2  pain
##    <chr>  <chr>     <dbl> <chr> <chr>    <chr> <dbl>  <dbl> <dbl> <dbl>
##  1 1      UCLA          1 1-1   6-Sep-09 male   65.0  3.70  8.09      4
##  2 1      UCLA          1 1-1   7-Jan-11 fema…  53.9  2.63  0.803     2
##  3 1      UCLA          1 1-1   4-Sep-10 male   41.4 NA     2.13      3
##  4 1      UCLA          1 1-1   25-Jun-… male   46.8  3.89  1.35      3
##  5 1      UCLA          1 1-1   1-Jul-09 male   51.9  1.42  2.19      4
##  6 1      UCLA          1 1-1   6-Mar-09 fema…  53.8  2.29  8.61      3
##  7 1      UCLA          1 1-1   15-Apr-… male   54.4  8.03  7.23      4
##  8 1      UCLA          1 1-11  12-Jul-… fema…  47.1  0.810 2.60      5
##  9 1      UCLA          1 1-11  25-Jul-… fema…  59.3 NA     5.18      4
## 10 1      UCLA          1 1-11  12-Jul-… fema…  47.1  0.810 2.60      5
## # … with 223 more rows, and 21 more variables: tumorsize <dbl>, co2 <dbl>,
## #   wound <dbl>, mobility <dbl>, ntumors <dbl>, remission <dbl>,
## #   lungcapacity <dbl>, married <dbl>, familyhx <chr>, smokinghx <chr>,
## #   cancerstage <chr>, lengthofstay <dbl>, wbc <chr>, rbc <dbl>, bmi <dbl>,
## #   agecat <fct>, highpain <lgl>, experience <dbl>, school <chr>,
## #   lawsuits <dbl>, medicaid <dbl>
…
