…
## See spec(...) for full column specifications.

db

## # A tibble: 120 x 24
##    hospital hospid docid dis_date sex     age   test1 test2  pain tumorsize
##    <chr>     <dbl> <chr> <chr>    <chr> <dbl>   <dbl> <dbl> <dbl>     <dbl>
##  1 UCLA          1 1-1   6-Sep-09 male   65.0   3.70  8.09      4      68.0
##  2 UCLA          1 1-1   7-Jan-11 fema…  53.9   2.63  0.803     2      64.7
##  3 UCLA          1 1-1   4-Sep-10 male   41.4 -99     2.13      3      86.4
##  4 UCLA          1 1-1   25-Jun-… male   46.8   3.89  1.35      3      53.4
##  5 UCLA          1 1-1   1-Jul-09 male   51.9   1.42  2.19      4      51.7
##  6 UCLA          1 1-1   6-Mar-09 fema…  53.8   2.29  8.61      3      78.9
##  7 UCLA          1 1-1   15-Apr-… male   54.4   8.03  7.23      4      62.9
##  8 UCLA          1 1-11  12-Jul-… fema…  47.1   0.810 2.60      5      81.2
##  9 UCLA          1 1-11  25-Jul-… fema…  59.3 -99     5.18      4      73.2
## 10 UCLA          1 1-11  12-Jul-… fema…  47.1   0.810 2.60      5      81.2
## # … with 110 more rows, and 14 more variables: co2 <dbl>, wound <dbl>,
## #   mobility <dbl>, ntumors <dbl>, remission <dbl>, lungcapacity <dbl>,
## #   married <dbl>, familyhx <chr>, smokinghx <chr>, cancerstage <chr>,
## #   lengthofstay <dbl>, wbc <chr>, rbc <dbl>, bmi <dbl>
